112
539
597
909
955
1275
1330
1621
1678
1906
1987
2335
2415
2614
2667
2888
2935
3157
3213
3504
3580
3895
3944
4188
4243
4478
4535
5034
5078
5380
5429
5725
5789
6058
6109
6364
6417
6771
6849
7069
7131
7372
7431
7739
7790
8064
8109
8332
8405
8682
8723
8969
9026
9296
9373
9598
9671
9914
9954
10219
10273
10498
10576
10838
10873
11125
11169
11443