132
651
746
1164
1215
1645
1749
2089
2171
2584
2655
3079
3161
3509
3559
3900
3971
4308
4375
4704
4777
5111
5182
5826
5898
6281
6349
6683
6765
7091
7177
7467
7544
7909
7992
8442
8502
8861
8941
9285
9356
9702
9817
10213
10301
10729
10800
11130
11205
11539
11606
11978
12052
12369
12425
12856
12923
13374
13459
13835
13898
14268
14309
14676
14731
15076
15102
15506
