0
379
524
893
990
1438
1500
1934
2038
2436
2533
2925
2995
3416
3495
3924
4012
4404
4517
4832
4905
5303
5450
5820
5872
6268
6379
6723
6798
7270
7373
7759
7844
8201
8270
8663
8750
9183
9252
9598
9674
10081
10159
10582
10662
11027
11117
11482
11570
11958
12048
12431
12506
12892
12960
13370
13493
13833
13910
14652
14684
15071
15124
15568
15809
16188
16274
16608