0
379
441 
749
876
1288
1345
1767
1833
2208
2298
2718
2772
3138
3206
3605
3680
4059
4099
4473
4554
4941
5017
5442
5498
5906
5967
6416
6462
6866
6930
7324
7376
7751
7807
8135
8221
8577
8639
8998
9060
9508
9580
9994
10084
10472
10536
10896
10951
11381
11419
11807
11871
12301
12348
12779
12825
13205
13263
13614
13658
14029
14067
14490
14544
14922
14970
15330