103
542
631
1056
1148
1431
1527
1980
2075
2533
2620
2978
3373
3688
3747
4110
4177
4502
4595
4957
5021
5378
5476
5835
5930
6246
6291
6650
6718
7064
7115
7486
7575
7884
7980
8263
8335
8628
8717
9000
9048
9341
9408
9702
9759
10096
10150
10511
10573
10877
10954
11224
11289
11664
11752
12108
12196
12620
12692
12987
13036
13322
13395
13678
13752
14059
14154
14547