277
700
767
1103
1182
1491
1585
1846
1935
2240
2306
2655
2714
3016
3088
3364
3453
3752
3826
4135
4200
4603
4702
5020
5083
5415
5501
5853
5933
6255
6319
6592
6676
6959
7001
7305
7373
7661
7737
8108
8199
8559
8628
9046
9128
9554
9685
10095
10194
10616
10684
11084
11159
11562
11623
11913
11968
12219
12300
12635
12698
13068
13153
13504
13631
14039
14166
14556