1452
2417
2769
3495
4239
5136
5295
5886
6027
7131
7613
8529
8652
9219
9342
11101
11175
11720
11802
12248
12324
13440
13493
14282
14372
15730
16038
16913
17285
17906
18037
18667
18747
19491
19679
20643
20834
22047
22205
23361
23689
24575
24673
25224
25364
26767
26907
27742
27887
28892
29045
29825
30250
31093
31144
32038
32099
32644
32780
33984
34442
35173
35304
36348
36560
36957
37086
37602
