614
976
1027
1387
1489
1860
1926
2379
2433
2725
2795
3230
3319
3688
3745
4050
4119
4508
4568
4933
4982
5318
5373
5660
5731
6007
6075
6361
6427
6797
6842
7184
7255
7556
7647
8110
8163
8533
8600
8911
8975
9302
9394
9679
9731
10077
10130
10429
10486
10918
10991
11276
11348
11675
11753
12115
12167
12575
12642
13066
13152
13513
13576
13979
14065
14578
14645
15025