316
936
1009
1369
1537
2075
2391
3193
3301
3718
3792
4216
4466
4885
4962
5332
5401
5832
5999
6375
6531
7022
7144
7596
7692
8074
8156
8614
8756
9126
9239
9620
9700
10123
10229
10617
10720
11076
11253
11619
11687
12036
12117
12794
12952
13387
13482
13852
13965
14423
14558
14908
14995
15396
15502
16005
16077
16623
16700
17095
17166
17518
17587
17953
18095
18435
18489
19289