198
609
709
1133
1208
1600
1683
2066
2171
2538
2644
3048
3131
3457
3552
3981
4064
4491
4586
4931
5011
5439
5492
5851
5945
6367
6470
6877
6959
7297
7383
7767
7826
8295
8363
8730
8822
9192
9257
9624
9725
10125
10210
10538
10596
10968
11068
11536
11625
12034
12091
12431
12501
12852
12933
13319
13371
13718
13776
14186
14257
14655
14734
15141
15242
15707
15750
16209