0
326
368
738
826
1220
1258
1636
1712
2082
2130
2558
2607
2955
3013
3468
3543
4006
4107
4470
4528
4933
5000
5360
5414
5756
5820
6191
6267
6626
6682
7094
7151
7504
7553
7907
7954
8315
8434
8830
8898
9240
9297
9641
9726
10053
10097
10442
10488
10798
10855
11258
11322
11639
11704
12077
12120
12476
12529
12944
13016
13430
13499
13937
14012
14697
14731
15101
