420
704
801
1333
1345
1690
1759
2044
2114
2399
2447
2726
2781
3064
3107
3415
3452
3736
3776
4067
4112
4415
4440
4750
4789
5082
5135
5431
5469
5763
5813
6098
6149
6439
6483
6777
6815
7113
7155
7447
7491
7783
7835
8127
8164
8457
8508
8790
8843
9129
9164
9458
9502
9816
9851
10172
10214
10496
10542
10824
10871
11161
11208
11493
11530
11815
11867
12175