486
941
1007
1431
1513
1898
2018
2485
2576
2964
3082
3468
3568
3987
4049
4484
4580
4983
5054
5456
5559
5981
6070
6467
6555
6963
7051
7463
7524
7933
8023
8461
8533
8974
9076
9475
9547
10052
10130
10521
10607
11022
11108
11497
11592
12003
12098
12493
12583
13003
13079
13496
13595
13946
14042
14437
14569
14932
15024
15420
15505
15901
15998
16389
16460
16840
16930
17349