0
260
403
754
828
1105
1215
1551
1620
1931
1997
2407
2485
2868
2935
3243
3317
3656
3723
4031
4084
4374
4424
4711
4776
5118
5173
5457
5528
5806
5917
6149
6216
6538
6715
7091
7158
7558
7621
7925
8014
8337
8420
8704
8773
9122
9175
9516
9588
9902
9987
10296
10375
10664
10747
11116
11282
11539
11629
12017