661
1101
1162
1613
1674
2078
2214
2643
2726
3127
3240
3667
3773
4193
4258
4712
4802
5184
5263
5695
5800
6200
6279
6682
6768
7192
7278
7707
7764
8171
8245
8670
8738
9140
9224
9580
9648
10108
10184
10583
10680
11070
11176
11521
11588
11951
12043
12405
12480
12887
12987
13376
13465
13807
13906
14266
14385
14747
14833
15196
15271
15664
15746
16134
16235
16596
16679
17054