757
1068
1120
1377
1441
1721
1820
2145
2283
2694
2783
3189
3232
3544
3643
3933
4007
4321
4407
4678
4741
5044
5129
5441
5513
5827
5907
6221
6280
6664
6768
7113
7203
7502
7552
7892
7961
8293
8337
8771
8862
9158
9226
9578
9623
9906
9991
10265
10317
10575
10630
10918
10968
11265
11357
11678
11741
12046
12148
12580
12651
12926
12983
13266
13337
13619
13748
14090