0
400
456
826
897
1630
1679
2055
2121
2468
2766
3225
3309
3675
3763
4143
4186
4578
4667
5067
5103
5564
5626
5980
6025
6431
6477
6894
6970
7399
7466
7856
7933
8387
8464
9038
9086
9521
9575
10019
10094
10497
10699
11062
11131
11527
11595
12002
12066
12490
12571
12910
12962
13313
13369
13772
13833
14212
14250
14714
14937
15304
15349
15670
15731
16042
16067
16412
