576
917
1003
1370
1462
1786
1874
2175
2270
2590
2723
3026
3132
3511
3635
3937
4031
4398
4442
4767
4904
5232
5312
5566
5627
5902
6000
6410
6475
6793
6853
7215
7275
7605
7666
7961
8022
8358
8401
8707
8785
9146
9254
9589
9671
10036
10101
10359
10432
10758
10844
11129
11185
11506
11563
11853
11901
12209
12266
12973
13025
13424
13482
13771
13832
14096
14154
14437