0
416
468
907
986
1436
1502
1943
2027
2430
2513
2950
3028
3464
3548
3995
4049
4480
4535
4969
5050
5469
5537
5985
6087
6491
6557
6963
7010
7366
7455
7875
7944
8356
8461
8878
8929
9339
9426
9835
9914
10343
10421
10832
10886
11300
11362
11748
11837
12311
12367
12783
12844
13228
13294
13657
13715
14126
14173
14615
14660
15065
15128
15542
15603
15995
16042
16407
