1300
1672
1717
2067
2138
2467
2532
2996
3054
3356
3408
3678
3781
4102
4153
4487
4589
4875
4929
5290
5441
5783
5845
6116
6160
6427
6480
6725
6796
7164
7328
7578
7634
7906
8051
8392
8452
8841
8943
9346
9412
9713
9777
10126
10191
10487
10549
10848
10902
11174
11233
11491
11550
11899
11949
12316
12461
12757
12879
13189
13248
13567
13643
13955
14026
14307
14339
14642